MA [46]15 Final Project - Group 7
…
broom::augment(mod1)

# A tibble: 12,490 × 11
   ARRESTED RACE   EDUCATION HHPOV  MALE .fitted   .resid    .hat .sigma .cooksd
      <dbl> <chr>      <dbl> <dbl> <dbl>   <dbl>    <dbl>   <dbl>  <dbl>   <dbl>
 1        0 Black…        12     1     0 0.0614  -0.0614  1.44e-3  0.154 3.29e-5
 2        0 White…        14     0     1 0.0322  -0.0322  1.88e-4  0.154 1.18e-6
 3        0 Black…        16     0     0 0.0239  -0.0239  1.08e-3  0.154 3.77e-6
 4        0 White…        14     0     0 0.00711 -0.00711 1.94e-4  0.154 5.92e-8
 5        0 White…        12     0     1 0.0416  -0.0416  2.43e-4  0.154 2.55e-6
 6        0 Black…        12     0     0 0.0427  -0.0427  1.05e-3  0.154 1.16e-5
 7        0 White…        12     0     1 0.0416  -0.0416  2.43e-4  0.154 2.55e-6
 8        0 White…        11     0     0 0.0212  -0.0212  3.30e-4  0.154 8.96e-7
 9        0 White…        18     0     1 0.0135  -0.0135  3.87e-4  0.154 4.26e-7
10        0 White…        14     0     0 0.00711 -0.00711 1.94e-4  0.154 5.92e-8
# ℹ 12,480 more rows
# ℹ 1 more variable: .std.resid <dbl>
…
